SPS-DATA607-WEEK10 - Sentiment Analysis
…
library(ggmap)

## Loading required package: ggplot2

## Google's Terms of Service: https://cloud.google.com/maps-platform/terms/.

## Please cite ggmap if you use it! See citation("ggmap") for details.

library(gutenbergr)
library(wordcloud)

get_sentiments("afinn")

## # A tibble: 2,477 x 2
##    word       value
##    <chr>      <dbl>
##  1 abandon       -2
##  2 abandoned     -2
##  3 abandons      -2
##  4 abducted      -2
##  5 abduction     -2
##  6 abductions    -2
##  7 abhor         -3
##  8 abhorred      -3
##  9 abhorrent     -3
## 10 abhors        -3
## # ... with 2,467 more rows

get_sentiments("bing")

## # A tibble: 6,786 x 2
##    word        sentiment
##    <chr>       <chr>    
##  1 2-faces     negative 
##  2 abnormal    negative 
##  3 abolish     negative 
##  4 abominable  negative 
##  5 abominably  negative 
##  6 abominate   negative 
##  7 abomination negative 
##  8 abort       negative 
##  9 aborted     negative 
## 10 aborts      negative 
## # ... with 6,776 more rows

get_sentiments("nrc")

## # A tibble: 13,901 x 2
##    word        sentiment
##    <chr>       <chr>    
##  1 abacus      trust    
##  2 abandon     fear     
##  3 abandon     negative 
##  4 abandon     sadness  
##  5 abandoned   anger    
##  6 abandoned   fear     
##  7 abandoned   negative 
##  8 abandoned   sadness  
##  9 abandonment anger    
## 10 abandonment fear     
## # ... with 13,891 more rows
…
data("stop_words")

tidy_books <- tidy_books %>%
  anti_join(stop_words)

## Joining, by = "word"

tidy_books %>%
  count(word, sort = TRUE)

## # A tibble: 10,379 x 2
##    word         n
##    <chr>    <int>
##  1 vol        388
##  2 1          387
##  3 16mo       298
##  4 flemming   247
##  5 king       178
##  6 cts        175
##  7 life       163
##  8 night      160
##  9 day        145
## 10 world      121
## # ... with 10,369 more rows
…
